^D:\Projets\VisualStudioProjects\GPUCrackme\GPUCrackme\GPUCrackme.vcxproj
D:\Projets\VisualStudioProjects\GPUCrackme\x64\Debug\GPUCrackme.lib
D:\Projets\VisualStudioProjects\GPUCrackme\x64\Debug\GPUCrackme.exp
